{
  "connection": "default",
  "collectionName": "masterbagihasils",
  "info": {
    "name": "masterbagihasil",
    "description": ""
  },
  "options": {
    "increments": true,
    "timestamps": true,
    "comment": ""
  },
  "attributes": {
    "kode": {
      "default": "",
      "type": "string"
    },
    "nama": {
      "default": "",
      "type": "string"
    },
    "rumahsakit": {
      "model": "rumahsakit"
    },
    "klinik": {
      "model": "klinik"
    },
    "paket": {
      "model": "paket"
    },
    "nilai_klinik": {
      "default": "",
      "type": "decimal"
    },
    "nilai_rumahsakit": {
      "default": "",
      "type": "decimal"
    },
    "nilai_admin": {
      "default": "",
      "type": "decimal"
    },
    "is_active": {
      "default": false,
      "type": "boolean"
    },
    "is_deleted": {
      "default": false,
      "type": "boolean"
    }
  }
}