{
  "routes": [
    {
      "method": "GET",
      "path": "/refkecamatans",
      "handler": "Refkecamatan.find",
      "config": {
        "policies": []
      }
    },
    {
      "method": "GET",
      "path": "/refkecamatans/count",
      "handler": "Refkecamatan.count",
      "config": {
        "policies": []
      }
    },
    {
      "method": "GET",
      "path": "/refkecamatans/:id",
      "handler": "Refkecamatan.findOne",
      "config": {
        "policies": []
      }
    },
    {
      "method": "POST",
      "path": "/refkecamatans",
      "handler": "Refkecamatan.create",
      "config": {
        "policies": []
      }
    },
    {
      "method": "PUT",
      "path": "/refkecamatans/:id",
      "handler": "Refkecamatan.update",
      "config": {
        "policies": []
      }
    },
    {
      "method": "DELETE",
      "path": "/refkecamatans/:id",
      "handler": "Refkecamatan.destroy",
      "config": {
        "policies": []
      }
    },
    {
      "method": "POST",
      "path": "/refkecamatans/:id/relationships/:relation",
      "handler": "Refkecamatan.createRelation",
      "config": {
        "policies": []
      }
    },
    {
      "method": "PUT",
      "path": "/refkecamatans/:id/relationships/:relation",
      "handler": "Refkecamatan.updateRelation",
      "config": {
        "policies": []
      }
    },
    {
      "method": "DELETE",
      "path": "/refkecamatans/:id/relationships/:relation",
      "handler": "Refkecamatan.destroyRelation",
      "config": {
        "policies": []
      }
    }
  ]
}
