{
  "routes": [
    {
      "method": "GET",
      "path": "/kliniks",
      "handler": "Klinik.find",
      "config": {
        "policies": []
      }
    },
    {
      "method": "GET",
      "path": "/kliniks/count",
      "handler": "Klinik.count",
      "config": {
        "policies": []
      }
    },
    {
      "method": "GET",
      "path": "/kliniks/:id",
      "handler": "Klinik.findOne",
      "config": {
        "policies": []
      }
    },
    {
      "method": "POST",
      "path": "/kliniks",
      "handler": "Klinik.create",
      "config": {
        "policies": []
      }
    },
    {
      "method": "PUT",
      "path": "/kliniks/:id",
      "handler": "Klinik.update",
      "config": {
        "policies": []
      }
    },
    {
      "method": "DELETE",
      "path": "/kliniks/:id",
      "handler": "Klinik.destroy",
      "config": {
        "policies": []
      }
    },
    {
      "method": "POST",
      "path": "/kliniks/:id/relationships/:relation",
      "handler": "Klinik.createRelation",
      "config": {
        "policies": []
      }
    },
    {
      "method": "PUT",
      "path": "/kliniks/:id/relationships/:relation",
      "handler": "Klinik.updateRelation",
      "config": {
        "policies": []
      }
    },
    {
      "method": "DELETE",
      "path": "/kliniks/:id/relationships/:relation",
      "handler": "Klinik.destroyRelation",
      "config": {
        "policies": []
      }
    }
  ]
}
